Name,BirthDate,Sex,Equipment,Country,Division,BodyweightKg,WeightClassKg,Squat1Kg,Squat2Kg,Squat3Kg,Best3SquatKg,Bench1Kg,Bench2Kg,Bench3Kg,Best3BenchKg,Deadlift1Kg,Deadlift2Kg,Deadlift3Kg,Best3DeadliftKg,TotalKg,Place,Event
Simone Lai,,F,Raw,Canada,Open,46.31,47,125,132.5,137.5,137.5,67.5,72.5,75,75,140,147.5,153,153,365.5,1,SBD
Stephanie Ensol,,F,Raw,Malaysia,Open,45.98,47,110,-115,-115,110,72.5,77.5,-80,77.5,-147.5,-147.5,-147.5,,,DQ,SBD
Stef Kean,,F,Raw,Canada,Open,51.27,52,125,135,-145,135,67.5,72.5,77.5,77.5,145,155,165,165,377.5,1,SBD
Lisa Casey,,F,Raw,N.Ireland,Open,50.31,52,70,77.5,82.5,82.5,35,37.5,-40,37.5,95,105,110,110,230,2,SBD
Maria Htee,,F,Raw,Canada,Open,56.14,57,165,170,178.5,178.5,92.5,97.5,-100,97.5,182.5,192.5,197.5,197.5,473.5,1,SBD
Jodie Cook #1,,F,Raw,England,Open,56.33,57,-127.5,127.5,132.5,132.5,82.5,87.5,90,90,162.5,175,-185,175,397.5,2,SBD
Moya Williams,,F,Raw,England,Open,56.98,57,120,125,130,130,65,70,72.5,72.5,190,-203.5,-203.5,190,392.5,3,SBD
Amelia Crook,,F,Raw,Wales,Open,55.71,57,125,132.5,-135,132.5,77.5,-82.5,-82.5,77.5,155,-165,-165,155,365,4,SBD
Moa Wikner,,F,Raw,England,Open,62.2,63,140,145,150,150,90,92.5,95,95,170,180,187.5,187.5,432.5,1,SBD
Stephanie Pike,,F,Raw,England,Open,61.98,63,127.5,-132.5,-132.5,127.5,65,67.5,-70,67.5,175,185,-190,185,380,2,SBD
Shannon Graszat,,F,Raw,Canada,Open,61.65,63,-130,130,137.5,137.5,60,65,-67.5,65,147.5,155,162.5,162.5,365,3,SBD
Finola Young,,F,Raw,N.Ireland,Open,61.81,63,-112.5,112.5,122.5,122.5,50,55,57.5,57.5,145,157.5,-165,157.5,337.5,4,SBD
Sheri Miles,,F,Raw,England,Open,71.81,72,140,150,-155,150,82.5,-90,-90,82.5,187.5,200,207.5,207.5,440,1,SBD
Melissa Garron,,F,Raw,Canada,Open,71.06,72,140,155,165,165,87.5,92.5,-95,92.5,175,180,-182.5,180,437.5,2,SBD
Emily Greenway,,F,Raw,England,Open,71.38,72,162.5,-167.5,167.5,167.5,77.5,80,-82.5,80,172.5,182.5,187.5,187.5,435,3,SBD
Marian De Zoysa,,F,Raw,Sri Lanka,Open,70.63,72,125,132.5,137.5,137.5,55,62.5,67.5,67.5,155,162.5,-170,162.5,367.5,4,SBD
Denise Galbraith,,F,Raw,N.Ireland,Open,69.77,72,125,135,-137.5,135,65,70,-72.5,70,142.5,152.5,-155,152.5,357.5,5,SBD
Stephanie Fleming,,F,Raw,Wales,Open,71.25,72,130,137.5,-142.5,137.5,70,72.5,-75,72.5,145,-155,-155,145,355,6,SBD
Nikki Cummings,,F,Raw,N.Ireland,Open,70.7,72,105,112.5,120,120,47.5,52.5,-57.5,52.5,140,150,160,160,332.5,7,SBD
Jessica Buettner,,F,Raw,Canada,Open,77.41,84,190,200,203.5,203.5,92.5,97.5,-100,97.5,227.5,240,243.5,243.5,544.5,1,SBD
Christina Appleby-Phillips,,F,Raw,Wales,Open,80.41,84,145,-155,-155,145,117.5,-122.5,122.5,122.5,180,190,-200,190,457.5,2,SBD
Rashenna Grzybowski,,F,Raw,Canada,Open,81.23,84,165,172.5,-180,172.5,87.5,90,-92.5,90,180,192.5,-200,192.5,455,3,SBD
Nicola Stimpson,,F,Raw,England,Open,83.02,84,175,185,-192.5,185,75,80,-82.5,80,165,-175,-175,165,430,4,SBD
Claire Tocher,,F,Raw,Scotland,Open,82,84,142.5,147.5,152.5,152.5,95,100,-102.5,100,160,-167.5,167.5,167.5,420,5,SBD
Natasha Eaton,,F,Raw,Wales,Open,79.85,84,140,147.5,-152.5,147.5,75,80,85,85,140,150,-160,150,382.5,6,SBD
Lauren McAuley,,F,Raw,N.Ireland,Open,79.53,84,100,107.5,110,110,52.5,55,-57.5,55,140,152.5,157.5,157.5,322.5,7,SBD
Emma Willis,,F,Raw,N.Ireland,Open,82.48,84,130,135,-137.5,135,-65,-65,,,,,,,,DQ,SBD
Hailey Kostynuik,,F,Raw,Canada,Open,133.14,84+,230,-240,-240,230,112.5,117.5,-120,117.5,207.5,215,222.5,222.5,570,1,SBD
Karla Platten,,F,Raw,N.Ireland,Open,97.89,84+,145,150,155,155,65,70,75,75,150,160,165,165,395,2,SBD
Jemma Blair,,F,Raw,N.Ireland,Open,149.21,84+,117.5,125,132.5,132.5,72.5,75,-77.5,75,145,152.5,160,160,367.5,3,SBD
Kwaku Antwi,,M,Raw,Canada,Juniors,92.04,93,240,250,-255,250,167.5,175,177.5,177.5,300,315,-330.5,315,742.5,1,SBD
Erik Mata,,M,Raw,England,Juniors,92.59,93,257.5,270,275,275,-175,175,180,180,275,287.5,-300,287.5,742.5,2,SBD
Liam Withers,,M,Raw,Canada,Juniors,92.55,93,235,247.5,257.5,257.5,162.5,170,177.5,177.5,255,-270,-270,255,690,3,SBD
Glenn Mccullagh,,M,Raw,N.Ireland,Juniors,92.38,93,217.5,230,237.5,237.5,132.5,140,142.5,142.5,245,260,270,270,650,4,SBD
Tom Seldon,,M,Raw,Wales,Juniors,91.37,93,220,230,232.5,232.5,130,135,140,140,240,250,-260,250,622.5,5,SBD
Andrew Fitzsimons,,M,Raw,N.Ireland,Juniors,88.28,93,180,190,-192.5,190,110,117.5,127.5,127.5,215,230,-235,230,547.5,6,SBD
Kevin Weiss,,M,Raw,Canada,Masters 1,86.19,93,200,210,220,220,140,,,140,227.5,240,-252.5,240,600,1,SBD
Claude Dallaire,,M,Raw,Canada,Masters 2,92.22,93,190,200,207.5,207.5,120,125,127.5,127.5,230,240,245,245,580,1,SBD
Jerry Marentette,,M,Raw,Canada,Masters 3,91.87,93,187.5,197.5,205,205,117.5,122.5,127.5,127.5,225,237.5,245,245,577.5,1,SBD
Dave Oulton,,M,Raw,Canada,Masters 3,89.71,93,182.5,190,202.5,202.5,87.5,-95,95,95,195,207.5,-212.5,207.5,505,2,SBD
John O'Riordan,,M,Raw,England,Masters 3,89.24,93,130,140,145,145,110,120,125,125,180,190,-192.5,190,460,3,SBD
TJ Gear,,M,Raw,Canada,Open,91.3,93,230,240,245,245,190,197.5,-200.5,197.5,300,310,-315,310,752.5,1,SBD
Pierre Shillingford,,M,Raw,England,Open,91.97,93,240,250,255,255,165,170,175,175,285,300,-305,300,730,2,SBD
Daniel Bedford #1,,M,Raw,England,Open,92.86,93,245,257.5,262.5,262.5,152.5,162.5,-165,162.5,270,285,-292.5,285,710,3,SBD
B Viswanatha,,M,Raw,India,Open,91.73,93,190,220,-242.5,220,100,-102.5,,100,290,302.5,-317.5,302.5,622.5,4,SBD
Toby Clarke,,M,Raw,N.Ireland,Open,88.23,93,170,182.5,190,190,110,117.5,120,120,200,212.5,-220,212.5,522.5,5,SBD
Andrew Martin,,M,Raw,N.Ireland,Sub-Juniors,88.37,93,180,182.5,200,200,135,142.5,147.5,147.5,205,225,-227.5,225,572.5,1,SBD
Juliana Arkoh,,F,Raw,Ghana,Juniors,66.43,72,-75,75,100,100,60,-70,-70,60,140,-145,-145,140,300,1,SBD
Luke Tremblay,,M,Raw,Canada,Juniors,104.11,105,300,315,320,320,180,192.5,200,200,290,310,325,325,845,1,SBD
Ashley Butler #1,,M,Raw,Wales,Juniors,117.77,120,270,282.5,290,290,180,190,-200,190,300,310,-320,310,790,1,SBD
Bradley May,,M,Raw,England,Juniors,119.34,120,270,287.5,300,300,165,172.5,177.5,177.5,285,305,-315,305,782.5,2,SBD
Zack Chwok,,M,Raw,Canada,Juniors,107.52,120,267.5,280,287.5,287.5,177.5,187.5,-192.5,187.5,252.5,270,277.5,277.5,752.5,3,SBD
Jeff Butt,,M,Raw,Canada,Masters 1,95.86,105,225,237.5,245,245,130,137.5,145,145,242.5,255,267.5,267.5,657.5,1,SBD
Paul Ferris,,M,Raw,N.Ireland,Masters 1,101.46,105,190,200,207.5,207.5,110,120,-125,120,240,250,252.5,252.5,580,2,SBD
Dean Dyble,1971-01-22,M,Raw,England,Masters 1,95.89,105,157.5,165,172.5,172.5,115,120,-122.5,120,215,225,227.5,227.5,520,3,SBD
Adam Anderson #1,,M,Raw,England,Masters 1,101.85,105,170,-180,182.5,182.5,115,120,-122.5,120,205,217.5,-222.5,217.5,520,4,SBD
Collin Pullar,,M,Raw,Canada,Masters 1,119.04,120,275,287.5,-297.5,287.5,190,200,-207.5,200,270,287.5,-292.5,287.5,775,1,SBD
Andrew Plant,,M,Raw,England,Masters 1,114.62,120,170,180,-190,180,157.5,165,-170,165,197.5,210,220,220,565,2,SBD
RJ Forbes,,M,Raw,Canada,Masters 1,127.74,120+,250,262.5,272.5,272.5,165,172.5,-180,172.5,250,262.5,272.5,272.5,717.5,1,SBD
Paul Walker #1,,M,Raw,Scotland,Masters 1,129.79,120+,250,262.5,270,270,160,167.5,-172.5,167.5,252.5,265,-285,265,702.5,2,SBD
Mark Townend,,M,Raw,England,Masters 1,149.42,120+,235,-237.5,,235,165,-175,-175,165,180,195,225,225,625,3,SBD
Eugene Currie,,M,Raw,N.Ireland,Masters 1,134.27,120+,175,190,200,200,120,130,135,135,210,220,222.5,222.5,557.5,4,SBD
Mike Forster,,M,Raw,Canada,Masters 2,125.35,120+,227.5,240,250,250,115,125,-132.5,125,237.5,250,260,260,635,1,SBD
Miroslav Koprnicky,,M,Raw,Canada,Masters 3,100.37,105,-172.5,172.5,180,180,137.5,142.5,147.5,147.5,195,205,210,210,537.5,1,SBD
Allen Profitt,,M,Raw,Canada,Masters 3,103.87,105,152.5,-162.5,165,165,127.5,-135,-135,127.5,215,230,-247.5,230,522.5,2,SBD
Ron Strong,,M,Raw,Canada,Masters 3,123.44,120+,200,215,225,225,130,150.5,-165,150.5,125,175,260,260,635.5,1,SBD
Inderraj Singh Dhillon,,M,Raw,England,Open,104.32,105,270,290,300,300,145,155,160,160,310,327.5,-342.5,327.5,787.5,1,SBD
Nick Longo,,M,Raw,Canada,Open,102.74,105,267.5,277.5,282.5,282.5,160,170,172.5,172.5,285,-307.5,307.5,307.5,762.5,2,SBD
Dan Yuill,,M,Raw,Wales,Open,103.13,105,200,212.5,217.5,217.5,147.5,155,-160,155,250,-260,-260,250,622.5,3,SBD
Samuel Mitchell,,M,Raw,N.Ireland,Open,104.12,105,185,197.5,210,210,145,152.5,-157.5,152.5,217.5,227.5,237.5,237.5,600,4,SBD
Oliver Smith,,M,Raw,N.Ireland,Open,100.92,105,180,202.5,215,215,135,145,152.5,152.5,200,225,-235,225,592.5,5,SBD
Dave Richardson #1,,M,Raw,England,Open,119.12,120,290,310,322.5,322.5,190,197.5,-200,197.5,335,-373,-373,335,855,1,SBD
Ransilu Jayathilake,,M,Raw,Sri Lanka,Open,117.33,120,260,272.5,280,280,130,140,145,145,295,310,-317.5,310,735,2,SBD
Joshua Smith,,M,Raw,N.Ireland,Open,116.93,120,217.5,232.5,240,240,140,150,157.5,157.5,230,245,252.5,252.5,650,3,SBD
Gerard Walsh,,M,Raw,N.Ireland,Open,117.67,120,200,210,215,215,140,145,-147.5,145,230,245,250,250,610,4,SBD
Erik Willis,,M,Raw,Canada,Open,129.18,120+,305,325,335,335,215,227.5,235,235,330,350,363,363,933,1,SBD
Mickael Cloutier,,M,Raw,Canada,Open,133.9,120+,312.5,332.5,345,345,212.5,225,232.5,232.5,305,320,330,330,907.5,2,SBD
Alastair McClelland,,M,Raw,N.Ireland,Open,126.19,120+,235,245,255,255,132.5,137.5,-142.5,137.5,240,255,-265,255,647.5,3,SBD
Kakolya Silva,,M,Raw,Sri Lanka,Sub-Juniors,103.44,105,165,180,190,190,102.5,112.5,117.5,117.5,215,227.5,235,235,542.5,1,SBD
Jacob Bisch,2003-01-25,M,Raw,Canada,Sub-Juniors,140.87,120+,230,245,-257.5,245,142.5,150,157.5,157.5,215,227.5,235,235,637.5,1,SBD
Nivendra Silva,,M,Raw,Sri Lanka,Sub-Juniors,126.19,120+,185,195,-200,195,115,122.5,-127.5,122.5,195,-215,-215,195,512.5,2,SBD
Tiarna Pearce,,F,Raw,England,Juniors,51.92,52,120,125,-127.5,125,57.5,-60,60,60,145,155,-166,155,340,1,SBD
Bindi Mehta,,F,Raw,Canada,Juniors,51.86,52,105,112.5,-115,112.5,65,-70,-70,65,132.5,-140,145,145,322.5,2,SBD
Sarah Strickland,,F,Raw,Canada,Juniors,51.97,52,80,85,-90,85,45,47.5,50,50,95,100,107.5,107.5,242.5,3,SBD
Orocy Jo,,F,Raw,New Zealand,Juniors,56.95,57,107.5,115,117.5,117.5,77.5,82.5,85,85,137.5,145,155,155,357.5,1,SBD
Stacie Jones,,F,Raw,England,Juniors,56.78,57,130,-140,140,140,65,72.5,75,75,140,-145,-145,140,355,2,SBD
Sabrina Rew,,F,Raw,England,Juniors,56.26,57,120,-127.5,-127.5,120,67.5,72.5,-75,72.5,140,152.5,-162.5,152.5,345,3,SBD
Aimee Jewell,,F,Raw,Scotland,Juniors,55.49,57,112.5,115,120,120,55,57.5,-60,57.5,132.5,140,145,145,322.5,4,SBD
Karenjeet Bains,,F,Raw,England,Juniors,62.04,63,132.5,140,-145,140,77.5,80,-82.5,80,155,160,-167.5,160,380,1,SBD
Kirstie Armstead,,F,Raw,Canada,Juniors,62.3,63,130,137.5,-142.5,137.5,75,80,82.5,82.5,145,157.5,-165,157.5,377.5,2,SBD
Sophia Ellis,,F,Raw,England,Juniors,71.4,72,132.5,142.5,-150,142.5,95,100.5,-103,100.5,190,200,-207.5,200,443,1,SBD
Sian Arterton,,F,Raw,England,Juniors,70.82,72,150,157.5,-162.5,157.5,85,87.5,-90,87.5,147.5,155,157.5,157.5,402.5,2,SBD
Jenna Downie,,F,Raw,Canada,Juniors,66.85,72,125,130,135,135,60,62.5,65,65,170,180,187.5,187.5,387.5,3,SBD
Dana Suitor,,F,Raw,N.Ireland,Juniors,67.04,72,110,120,122.5,122.5,75,-77.5,77.5,77.5,142.5,155,162.5,162.5,362.5,4,SBD
Krystyna Urbancic,,F,Raw,Canada,Juniors,81.8,84,150,157.5,-160,157.5,77.5,82.5,85,85,172.5,180,185,185,427.5,1,SBD
Drew Fackrell,,F,Raw,England,Juniors,82.6,84,150,157.5,-160,157.5,72.5,77.5,-80,77.5,155,160,162.5,162.5,397.5,2,SBD
Samantha Edgar,,F,Raw,Scotland,Juniors,83.03,84,135,142.5,-150,142.5,65,70,-75,70,170,-180,180,180,392.5,3,SBD
Charlie Chester,,F,Raw,England,Juniors,109.6,84+,172.5,180,185,185,92.5,97.5,100,100,170,182.5,200,200,485,1,SBD
Melissa Bird,,F,Raw,Wales,Juniors,99.55,84+,162.5,170,-177.5,170,82.5,87.5,90,90,165,172.5,180,180,440,2,SBD
Jain Rishitaa,,F,Raw,India,Sub-Juniors,51.2,52,42.5,50,57.5,57.5,27.5,35,-40,35,80,97.5,105,105,197.5,1,SBD
Dayna Smith,2002-10-03,F,Raw,Scotland,Sub-Juniors,56.05,57,107.5,115,-117.5,115,50,55,-57.5,55,135,145,146,146,316,1,SBD
Claire Morrissey,,F,Raw,N.Ireland,Sub-Juniors,54.88,57,70,82.5,87.5,87.5,35,40,42.5,42.5,90,100,107.5,107.5,237.5,2,SBD
Aine Apperley,,F,Raw,N.Ireland,Sub-Juniors,61.99,63,97.5,107.5,-117.5,107.5,47.5,52.5,-55,52.5,117.5,122.5,-125,122.5,282.5,1,SBD
Amber Milley,,F,Raw,Canada,Sub-Juniors,71.41,72,107.5,115,120,120,52.5,57.5,60,60,110,117.5,120,120,300,1,SBD
Lily MacPherson,,F,Raw,Canada,Sub-Juniors,65.31,72,100,105,-107.5,105,50,52.5,-55,52.5,102.5,110,-112.5,110,267.5,2,SBD
Daniella-Jade Chester,,F,Raw,England,Sub-Juniors,66.5,72,67.5,75,82.5,82.5,45,50,55,55,80,95,-105,95,232.5,3,SBD
Sara Farrell,,F,Raw,New Zealand,Sub-Juniors,95.71,84+,125,-132.5,132.5,132.5,62.5,67.5,70,70,155,-162.5,162.5,162.5,365,1,SBD
Tom Hitchcock-Wyatt,,M,Raw,England,Juniors,58.2,59,150,160,162.5,162.5,80,90,-95,90,170,185,-195,185,437.5,1,SBD
Luke Homer,,M,Raw,Canada,Juniors,65.77,66,222.5,232.5,237.5,237.5,115,122.5,127.5,127.5,240,257.5,272.5,272.5,637.5,1,SBD
Yuki Kashima,,M,Raw,Australia,Juniors,65.44,66,170,-180,180,180,120,130,-135,130,-205,210,-225,210,520,2,SBD
Tanwar Adarsh,,M,Raw,India,Juniors,65.8,66,150,165,172.5,172.5,100,,,100,170,190,,190,462.5,3,SBD
Daniel Heintz,,M,Raw,Canada,Juniors,73.84,74,240,250,-260.5,250,137.5,142.5,145,145,242.5,257.5,-272.5,257.5,652.5,1,SBD
Vivian Washington,,M,Raw,New Zealand,Juniors,73.13,74,175,185,195,195,120,125,130,130,-200,207.5,212.5,212.5,537.5,2,SBD
Geraint Davies,,M,Raw,Wales,Juniors,73.33,74,185,192.5,-197.5,192.5,110,117.5,120,120,200,210,-232.5,210,522.5,3,SBD
Dominic King,,M,Raw,Wales,Juniors,73.36,74,172.5,180,-185,180,100,105,-107.5,105,210,222.5,-227.5,222.5,507.5,4,SBD
Aleksander Milewski,,M,Raw,N.Ireland,Juniors,72.48,74,170,180,-182.5,180,102.5,-107.5,-107.5,102.5,207.5,220,-232.5,220,502.5,5,SBD
Logan Tarasoff,,M,Raw,Canada,Juniors,82.39,83,247.5,257.5,265,265,145,150,155,155,257.5,270,275,275,695,1,SBD
Nick Hayward,,M,Raw,Canada,Juniors,82.93,83,235,245,-252.5,245,135,142.5,145,145,277.5,292.5,-307.5,292.5,682.5,2,SBD
Alex Sun,,M,Raw,New Zealand,Juniors,82.03,83,207.5,222.5,232.5,232.5,135,140,147.5,147.5,265,282.5,-292.5,282.5,662.5,3,SBD
Sonny Nash,,M,Raw,England,Juniors,82,83,220,230,235,235,117.5,125,127.5,127.5,235,250,-255,250,612.5,4,SBD
Joshua Perkins,,M,Raw,New Zealand,Juniors,82.48,83,195,205,215,215,142.5,150,-152.5,150,225,237.5,-245,237.5,602.5,5,SBD
Joshua Steen,,M,Raw,England,Juniors,82.41,83,175,190,200,200,120,127.5,-130,127.5,205,220,225,225,552.5,6,SBD
Matthew Carton,,M,Raw,N.Ireland,Juniors,81.95,83,165,177.5,185,185,127.5,132.5,-135,132.5,187.5,200,210,210,527.5,7,SBD
Shiek Ali,,M,Raw,Canada,Masters 1,73.49,74,165,172.5,180,180,115,122.5,127.5,127.5,175,187.5,197.5,197.5,505,1,SBD
Malcolm Long,,M,Raw,England,Masters 1,82.03,83,195,205,210,210,132.5,140,142.5,142.5,230,242.5,-255,242.5,595,1,SBD
Rob Dyke,,M,Raw,Canada,Masters 1,81.07,83,185,200,205,205,145,155,-157.5,155,220,232.5,-240,232.5,592.5,2,SBD
Kevin Steiger,,M,Raw,Canada,Masters 1,80.99,83,170,182.5,190,190,107.5,112.5,117.5,117.5,235,242.5,252.5,252.5,560,3,SBD
Jay McGrath,,M,Raw,Canada,Masters 2,64.63,66,150,155,160,160,95,100,105,105,175,182.5,-190,182.5,447.5,1,SBD
Paul Smith #2,,M,Raw,Canada,Masters 2,65.6,66,135,140,142.5,142.5,80,-85,-85,80,180,190,200,200,422.5,2,SBD
Glen Chaytor,,M,Raw,Canada,Masters 2,73.66,74,190,197.5,-200,197.5,100,105,-107.5,105,185,187.5,-192.5,187.5,490,1,SBD
François Cazes,,M,Raw,Canada,Masters 2,73.03,74,145,152.5,155,155,100,102.5,105,105,190,200,-205,200,460,2,SBD
Sandro D'Angelo,,M,Raw,Canada,Masters 2,81.94,83,180,190,200,200,115,120,125,125,225,235,-240,235,560,1,SBD
Neil Andrews,,M,Raw,New Zealand,Masters 2,82.9,83,170,175,180,180,105,110,112.5,112.5,207.5,220,-232.5,220,512.5,2,SBD
Shaun Hudson,,M,Raw,England,Masters 2,81.72,83,160,167.5,175,175,85,92.5,-97.5,92.5,170,185,-200,185,452.5,3,SBD
Réjean Talon,,M,Raw,Canada,Masters 3,65.36,66,140,152.5,-163,152.5,110.5,115.5,-116.5,115.5,160,165,-167.5,165,433,1,SBD
John MacQueen,,M,Raw,Canada,Masters 3,81.82,83,165,175,180,180,115,-120,-120,115,170,175,177.5,177.5,472.5,1,SBD
Don Cormier,,M,Raw,Canada,Masters 3,80.98,83,172.5,182.5,197,197,92.5,97.5,102.5,102.5,137.5,160,-172.5,160,459.5,2,SBD
R. Vaidyanathan,,M,Raw,India,Masters 4,63.3,66,95,100,-105,100,47.5,52.5,55,55,100,120,130,130,285,1,SBD
Laurie Greenidge,,M,Raw,Canada,Masters 4,81.99,83,150,-160,-160,150,90,100,105,105,165,175,185,185,440,1,SBD
Ben Hampson,,M,Raw,England,Open,61.91,66,162.5,172.5,185,185,107.5,115,-120,115,177.5,192.5,-202.5,192.5,492.5,1,SBD
Nathaniel Shaw,,M,Raw,England,Open,72.48,74,197.5,207.5,212.5,212.5,117.5,125,127.5,127.5,227.5,240,-250,240,580,1,SBD
Ricky Morrison,,M,Raw,N.Ireland,Open,73.25,74,175,185,190,190,125,-132.5,-132.5,125,195,200,207.5,207.5,522.5,2,SBD
James McIlwaine,,M,Raw,N.Ireland,Open,71.28,74,195,205,207.5,207.5,100,107.5,-110,107.5,190,197.5,205,205,520,3,SBD
Brett Gibbs,,M,Raw,New Zealand,Open,82.85,83,265,280,290,290,200,210,216,216,295,310,-327.5,310,816,1,SBD
Guillaume LeBlanc,,M,Raw,Canada,Open,80.59,83,255,267.5,280,280,160,165,170,170,275,295,305,305,755,2,SBD
Raphael Boutin,,M,Raw,Canada,Sub-Juniors,65.62,66,165,175,182.5,182.5,130.5,138,-143,138,197.5,212.5,-222.5,212.5,533,1,SBD
Edwin Whiteside,,M,Raw,N.Ireland,Sub-Juniors,65.38,66,172.5,177.5,182.5,182.5,82.5,87.5,90,90,197.5,212.5,222.5,222.5,495,2,SBD
Tom Davies #1,,M,Raw,Wales,Sub-Juniors,70.81,74,117.5,125,137.5,137.5,90,95,100,100,150,160,170,170,407.5,1,SBD
Jason Smyth,,M,Raw,N.Ireland,Sub-Juniors,81.89,83,142.5,150,-160,150,107.5,115,-125,115,195,205,210,210,475,1,SBD
Ellissa Hull,,F,Raw,Canada,Masters 1,46.4,47,110,117.5,-123,117.5,60,65,68,68,150,155,-161,155,340.5,1,SBD
Michelle Ryder,,F,Raw,England,Masters 1,45.73,47,62.5,67.5,72.5,72.5,40,42.5,-45,42.5,110,120,-125,120,235,2,SBD
Sofia Rufus,,F,Raw,England,Masters 1,50.87,52,110,117.5,125,125,50,55,60,60,112.5,122.5,-132.5,122.5,307.5,1,SBD
Katharine Stewart,,F,Raw,N.Ireland,Masters 1,55.24,57,92.5,97.5,102.5,102.5,65,70,72.5,72.5,122.5,132.5,145,145,320,1,SBD
Emma Drackford,,F,Raw,England,Masters 1,56.46,57,117.5,125,-130.5,125,55,60,-62.5,60,115,125,-135,125,310,2,SBD
Denise Royer,,F,Raw,Canada,Masters 1,56.57,57,107.5,112.5,115,115,67.5,72.5,-75,72.5,120,-130,-130,120,307.5,3,SBD
Natasha Dunn-Kvedaras,,F,Raw,Canada,Masters 1,62.03,63,130,-135,-135,130,80,82.5,85,85,150,157.5,162.5,162.5,377.5,1,SBD
Michelle Harwood,,F,Raw,Canada,Masters 1,62.46,63,127.5,137.5,-142.5,137.5,62.5,67.5,70,70,142.5,152.5,-160,152.5,360,2,SBD
Anneli Ritari-Stewart,,F,Raw,Scotland,Masters 1,61.02,63,107.5,115,-120,115,52.5,55,57.5,57.5,135,142.5,147.5,147.5,320,3,SBD
Michelle Breen,,F,Raw,N.Ireland,Masters 1,61.91,63,92.5,97.5,102.5,102.5,52.5,55,-57.5,55,120,127.5,132.5,132.5,290,4,SBD
Emma Taylor #1,,F,Raw,England,Masters 1,70.23,72,110,120,130,130,60,62.5,65,65,150,160,170,170,365,1,SBD
Tracy Wise,,F,Raw,Canada,Masters 1,69.71,72,117.5,125,-130,125,75,-80,-80,75,140,-150,-150,140,340,2,SBD
Ajanta Hilton,1978-07-19,F,Raw,England,Masters 1,70.26,72,115,120,125,125,57.5,60,62.5,62.5,135,140,-145,140,327.5,3,SBD
Suzanne Walker,,F,Raw,N.Ireland,Masters 1,64.44,72,82.5,90,-92.5,90,45,47.5,50,50,115,122.5,-130,122.5,262.5,4,SBD
Vicky Taylor-Hood,,F,Raw,Canada,Masters 1,83.2,84,155,165,-170.5,165,75,80,-82.5,80,175,185,192.5,192.5,437.5,1,SBD
Rosemary McNally,,F,Raw,N.Ireland,Masters 1,78.22,84,117.5,125,-130,125,62.5,67.5,-70,67.5,150,160,165,165,357.5,2,SBD
Lucy Hyde,,F,Raw,England,Masters 1,82.58,84,107.5,115,120,120,82.5,-87.5,-87.5,82.5,137.5,-152.5,-152.5,137.5,340,3,SBD
Irene Hallyburton,,F,Raw,Scotland,Masters 1,81.84,84,-120,120,125,125,65,-67.5,-67.5,65,140,-145,145,145,335,4,SBD
Tracy O'Callaghan,,F,Raw,Wales,Masters 1,97.06,84+,170,180,190,190,85,90,-92.5,90,175,185,200,200,480,1,SBD
Kelly Phasey,,F,Raw,England,Masters 1,133.72,84+,150,-162.5,162.5,162.5,95,100,-102.5,100,140,152.5,167.5,167.5,430,2,SBD
Krista Sanger,,F,Raw,Canada,Masters 1,95.4,84+,142.5,152.5,162.5,162.5,77.5,82.5,85,85,165,170,-182.5,170,417.5,3,SBD
Tammie-Lee Ballinger,,F,Raw,Canada,Masters 1,115.51,84+,75,135,-150,135,-102.5,102.5,105,105,132.5,142.5,152.5,152.5,392.5,4,SBD
Cathy Curran,,F,Raw,N.Ireland,Masters 1,118.02,84+,110,120,130,130,65,72.5,-75,72.5,140,150,-167.5,150,352.5,5,SBD
Angelina Lane,,F,Raw,Wales,Masters 2,51.59,52,85,90,92.5,92.5,52.5,55,57.5,57.5,112.5,120,125,125,275,1,SBD
Janique Lafond,,F,Raw,Canada,Masters 2,49.76,52,97.5,102.5,105,105,47.5,50,-52.5,50,107.5,115,-122.5,115,270,2,SBD
Anne Beaumaster,,F,Raw,Canada,Masters 2,56.92,57,75,80,85,85,32.5,35,-37.5,35,85,-90,-90,85,205,1,SBD
Debbie Peever,,F,Raw,Canada,Masters 2,59.72,63,100,107.5,112.5,112.5,50,57.5,62.5,62.5,107.5,115,-120,115,290,1,SBD
Annette Forker,,F,Raw,N.Ireland,Masters 2,61.87,63,80,90,95,95,47.5,55,57.5,57.5,110,120,122.5,122.5,275,2,SBD
Tree Grennan,,F,Raw,England,Masters 2,61.11,63,75,80,82.5,82.5,40,-45,45,45,102.5,112.5,-117.5,112.5,240,3,SBD
Mona Smith #2,,F,Raw,England,Masters 2,61.5,63,75,-80,80,80,42.5,45,-47.5,45,92.5,102.5,105,105,230,4,SBD
Gayle Johnson,,F,Raw,Canada,Masters 2,70.1,72,95,110,-123,110,67.5,-73,-73,67.5,140,155,-157.5,155,332.5,1,SBD
Beverly Sharpe,,F,Raw,Canada,Masters 2,70.98,72,100,107.5,115,115,40,45,47.5,47.5,100,110,120,120,282.5,2,SBD
Georgina Hazell,,F,Raw,England,Masters 2,79.97,84,100,110,117.5,117.5,70,77.5,82.5,82.5,160,170,-177.5,170,370,1,SBD
Wanda Lewis,,F,Raw,Canada,Masters 2,83.88,84,122.5,127.5,-130,127.5,60,62.5,-65,62.5,160,170,-182.5,170,360,2,SBD
Linda Guillemette,,F,Raw,Canada,Masters 2,82.17,84,100,107.5,112.5,112.5,60,62.5,65,65,127.5,135,-142.5,135,312.5,3,SBD
Libby Blair,,F,Raw,N.Ireland,Masters 2,116.65,84+,150,155,160,160,75,77.5,80,80,180,190,200,200,440,1,SBD
Alisa Cutler,,F,Raw,Canada,Masters 2,127.15,84+,125,-127.5,127.5,127.5,62.5,65,-70,65,170,182.5,192.5,192.5,385,2,SBD
Ruth Bird,1965-04-06,F,Raw,Wales,Masters 2,88.14,84+,105,115,120,120,50,55,-57.5,55,127.5,135,142.5,142.5,317.5,3,SBD
Jill Bowers,,F,Raw,England,Masters 2,89.7,84+,100,110,-117.5,110,57.5,62.5,-65,62.5,100,110,-120,110,282.5,4,SBD
Gautam Namratha,,F,Raw,India,Masters 2,87.22,84+,40,50,60,60,30,40,45,45,60,70,80,80,185,5,SBD
Janet Warne,,F,Raw,Canada,Masters 3,54.99,57,77.5,82.5,87.5,87.5,40,42.5,45,45,87.5,92.5,-95,92.5,225,1,SBD
Joyce Park,1958-12-29,F,Raw,Scotland,Masters 3,70.18,72,111,116,-117.5,116,65,-70,70,70,141,146,149,149,335,1,SBD
Deb Ellard,,F,Raw,Canada,Masters 3,65.22,72,90,95,100,100,60,65,-67.5,65,120,125,-127.5,125,290,2,SBD
Allison Bernard-Mahadeo,,F,Raw,Canada,Masters 3,63.15,72,85,90,95,95,42.5,47.5,-50,47.5,120,127.5,-132.5,127.5,270,3,SBD
Caroline Calver,1958-10-17,F,Raw,England,Masters 3,70.04,72,85,-92.5,-92.5,85,47.5,-50,50,50,120,125,-132.5,125,260,4,SBD
Arlene van Diepen,,F,Raw,Canada,Masters 3,78.43,84,95,100,105,105,55,57.5,60,60,140,147.5,153.5,153.5,318.5,1,SBD
Janet Martin,,F,Raw,Canada,Masters 3,83.65,84,102.5,107.5,112.5,112.5,55,57.5,60,60,130,135,-137.5,135,307.5,2,SBD
Catherine Macaslan,,F,Raw,Scotland,Masters 3,72.32,84,52.5,-60,60,60,35,37.5,40,40,92.5,100,107.5,107.5,207.5,3,SBD
Sandra Nase,,F,Raw,Canada,Masters 3,101.83,84+,102.5,110,117.5,117.5,55,57.5,60,60,140,147.5,-155,147.5,325,1,SBD
Linda Rousseau,,F,Raw,Canada,Masters 3,84.74,84+,95,102.5,112.5,112.5,57.5,62.5,-65,62.5,105,112.5,,112.5,287.5,2,SBD
Valerie Silver,,F,Raw,Australia,Masters 4,58.22,63,50,52.5,55,55,40,42.5,45,45,100,105,107.5,107.5,207.5,1,SBD
Vaidyanathan Jayalakshmi,,F,Raw,India,Masters 4,62.75,63,-50,-50,50,50,30,32.5,-35,32.5,60,70,80,80,162.5,2,SBD
Susan Haywood,,F,Raw,Canada,Masters 4,80.72,84,65,71,72.5,72.5,45,-50.5,-50.5,45,80,90,-100.5,90,207.5,1,SBD
Ruby Koritarov,,F,Raw,Canada,Masters 4,102.39,84+,70,73,75.5,75.5,40,42.5,43.5,43.5,107.5,112.5,115.5,115.5,234.5,1,SBD
Steve Doyle,,M,Single-ply,Canada,Open,72.7,74,225,237.5,250,250,150,157.5,160,160,225,-240,-240,225,635,1,SBD
Pradeep Kumar,,M,Single-ply,India,Open,81.16,83,270,280,,280,200,207.5,-212.5,207.5,250,265,-275,265,752.5,1,SBD
Bronson Jacque,,M,Single-ply,Canada,Open,80.03,83,250,265,275,275,185,197.5,-207.5,197.5,252.5,265,-280,265,737.5,2,SBD
Chris Fudge,,M,Single-ply,Canada,Open,81.97,83,227.5,237.5,242.5,242.5,75,,,75,227.5,237.5,245,245,562.5,3,SBD
Bhaskar Viswanatha,,M,Single-ply,India,Open,90.86,93,270,285,295,295,170,180,-185,180,310,327.5,-335,327.5,802.5,1,SBD
Hugo Duarte,,M,Single-ply,England,Open,92.44,93,300,-307.5,-307.5,300,190,195,200,200,275,287.5,-305,287.5,787.5,2,SBD
Indika Paranagama,,M,Single-ply,Sri Lanka,Open,103.17,105,-270,270,-300,270,157.5,165,180,180,265,277.5,285,285,735,1,SBD
Louis Phelps,,M,Single-ply,England,Open,103.88,105,270,285,290,290,-155,155,-160,155,250,-265,-265,250,695,2,SBD
Garrett Cartwright-Bentley,,M,Single-ply,Canada,Open,117.52,120,345,357.5,375,375,220,230,237.5,237.5,272.5,282.5,292.5,292.5,905,1,SBD
Ransilu Jayathilake,,M,Single-ply,Sri Lanka,Open,118.01,120,245,260,270,270,130,140,-145,140,290,300,-312.5,300,710,2,SBD
Ciaran May,,M,Single-ply,N.Ireland,Open,118.44,120,250,260,270,270,175,-185,-185,175,230,240,252.5,252.5,697.5,3,SBD
Darin Weerasinghe,,M,Single-ply,Sri Lanka,Open,125.12,120+,-260,260,-267.5,260,200,205,210,210,240,255,262.5,262.5,732.5,1,SBD
Danielle Hussey,,F,Single-ply,Canada,Masters 1,56.23,57,132.5,140,145,145,75,80,-82.5,80,135,-145,-145,135,360,1,SBD
Joanne Rose,,F,Single-ply,Canada,Masters 1,58.18,63,110,115,120,120,65,-70,-70,65,142.5,150,-155,150,335,1,SBD
Arun Arathi,,F,Single-ply,India,Masters 1,69.35,72,120,-140,-140,120,60,70,-75,70,120,140,152.5,152.5,342.5,1,SBD
Heather Unsworth,,F,Single-ply,Canada,Masters 1,82.48,84,165,-175,175,175,90,95,100,100,165,-175,-180,165,440,1,SBD
Anindita Priyadarshn,,F,Single-ply,India,Masters 2,54.3,57,80,90,100,100,40,45,50,50,90,100,110,110,260,1,SBD
Kim Connors,,F,Single-ply,Canada,Masters 2,59.63,63,115,117.5,-120,117.5,60,-62.5,62.5,62.5,125,135,-140,135,315,1,SBD
Karen Hann,,F,Single-ply,Canada,Masters 2,57.44,63,105,110,-112.5,110,60,65,67.5,67.5,105,112.5,120,120,297.5,2,SBD
Linda Guillemette,,F,Single-ply,Canada,Masters 2,81.81,84,85,-95,-95,85,50,-65,-65,50,100,-105,,100,235,1,SBD
Alisa Cutler,,F,Single-ply,Canada,Masters 2,127.57,84+,140,150,-160,150,85,90,95,95,170,182.5,190,190,435,1,SBD
Gwendelyn Grasdal,,F,Single-ply,Canada,Masters 2,124.11,84+,-150,150,160,160,87.5,92.5,95,95,125,140,-172.5,140,395,2,SBD
Gautam Namratha,,F,Single-ply,India,Masters 2,88.15,84+,40,50,60,60,30,-40,40,40,60,70,80,80,180,3,SBD
Stef Kean,,F,Single-ply,Canada,Open,51.18,52,150,160,165,165,85,90,92.5,92.5,165,175,-195,175,432.5,1,SBD
Romina Basting,,F,Single-ply,England,Open,51.82,52,130,137.5,-140,137.5,70,75,80,80,120,125,-130,125,342.5,2,SBD
Lauren Elder,,F,Single-ply,N.Ireland,Open,62.52,63,165,170,175,175,50,77.5,82.5,82.5,177.5,187.5,196,196,453.5,1,SBD
Charlene Cossar,,F,Single-ply,Canada,Open,68.8,72,167.5,-175,-175,167.5,95,100,-105,100,-175,175,-192.5,175,442.5,1,SBD
Rebecca Adams,,F,Single-ply,Canada,Open,82.87,84,152.5,162.5,170,170,92.5,97.5,-102.5,97.5,175,182.5,187.5,187.5,455,1,SBD
Marian e Zoysa,,F,Single-ply,Sri Lanka,Open,72.36,84,120,127.5,135,135,55,60,-70,60,145,160,-170,160,355,2,SBD
Jain Rishitaa,,F,Single-ply,India,Sub-Juniors,51.1,52,-45,45,-90,45,25,30,35,35,85,100,-110,100,180,1,SBD
Nandana Regitha,,F,Single-ply,India,Sub-Juniors,70.18,72,170,180,190,190,70,-75,-75,70,130,145,155,155,415,1,SBD
Sardesai Hritika,,F,Single-ply,India,Sub-Juniors,70.18,72,-175,,,,,,,,,,,,,DQ,SBD
Tanwar Adarsh,,M,Single-ply,India,Juniors,65.01,66,,,,,120,130,135,135,,,,,135,1,B
Shiek Ali,,M,Single-ply,Canada,Masters 1,73.22,74,,,,,137.5,145,150,150,,,,,150,1,B
Tom Kean,,M,Single-ply,Canada,Masters 1,82.01,83,,,,,170,182.5,-192.5,182.5,,,,,182.5,1,B
Robert King,,M,Single-ply,Canada,Masters 1,85.24,93,,,,,140,,,140,,,,,140,1,B
Kumar Sarath,,M,Single-ply,India,Masters 1,119.61,120,,,,,170,185,-200,185,,,,,185,1,B
Graeme Reid,,M,Single-ply,Scotland,Masters 1,128.05,120+,,,,,180,-190,-190,180,,,,,180,1,B
Dylan Davies,,M,Single-ply,Wales,Masters 1,138.73,120+,,,,,-192.5,-192.5,-192.5,,,,,,,DQ,B
Gary Lacoursiere,,M,Single-ply,Canada,Masters 2,73.05,74,,,,,142.5,-152.5,-152.5,142.5,,,,,142.5,1,B
George Millar,,M,Single-ply,N.Ireland,Masters 2,82.39,83,,,,,140,145,-150,145,,,,,145,1,B
Rick Morse,,M,Single-ply,Australia,Masters 2,92.09,93,,,,,-180,180,-215.5,180,,,,,180,1,B
Claude Dallaire,,M,Single-ply,Canada,Masters 2,92.94,93,,,,,127.5,132.5,140,140,,,,,140,2,B
Robert Truchon,,M,Single-ply,Canada,Masters 2,89.32,93,,,,,127.5,-137.5,137.5,137.5,,,,,137.5,3,B
Ron Corcoran,,M,Single-ply,Canada,Masters 2,98.46,105,,,,,135,142.5,-145,142.5,,,,,142.5,1,B
Singh Inderjeet,,M,Single-ply,India,Masters 3,82.01,83,,,,,125,132.5,140,140,,,,,140,1,B
Singh Anterpal,,M,Single-ply,India,Masters 3,81.48,83,,,,,-70,70,80,80,,,,,80,2,B
John Noguera,,M,Single-ply,Canada,Masters 3,90.44,93,,,,,125,140,145,145,,,,,145,1,B
Daniel Royer,,M,Single-ply,Canada,Masters 3,104.31,105,,,,,120,-130,130,130,,,,,130,1,B
Tilman Gallant,,M,Single-ply,Canada,Masters 4,81.32,83,,,,,140,145,-154.5,145,,,,,145,1,B
Kumar Vipin,,M,Single-ply,India,Open,65.55,66,,,,,-175,-175,-175,,,,,,,DQ,B
Andrew Lang,,M,Single-ply,Canada,Open,68.34,74,,,,,160,165,170,170,,,,,170,1,B
Steve Doyle,,M,Single-ply,Canada,Open,73.01,74,,,,,-160,160,-167.5,160,,,,,160,2,B
Pradeep Kumar,,M,Single-ply,India,Open,81.93,83,,,,,200,205,210,210,,,,,210,1,B
Bronson Jacque,,M,Single-ply,Canada,Open,80.51,83,,,,,170,180,195,195,,,,,195,2,B
Chris Fudge,,M,Single-ply,Canada,Open,82.43,83,,,,,170,-175,-182.5,170,,,,,170,3,B
Michael Gibson #2,,M,Single-ply,N.Ireland,Open,104.04,105,,,,,250,-260,260,260,,,,,260,1,B
Chad Sinclair,,M,Single-ply,Canada,Open,104.49,105,,,,,-177.5,182.5,190,190,,,,,190,2,B
Garrett Cartwright-Bentley,,M,Single-ply,Canada,Open,117.17,120,,,,,205,-215,-215,205,,,,,205,1,B
Ciaran May,,M,Single-ply,N.Ireland,Open,118.16,120,,,,,-182.5,182.5,-192.5,182.5,,,,,182.5,2,B
Gogna Ajay,,M,Single-ply,India,Open,139.41,120+,,,,,180,200,-220,200,,,,,200,1,B
K.v Rithvik,,M,Single-ply,India,Sub-Juniors,82.26,83,,,,,90,100,-105,100,,,,,100,1,B
Kakolya Silva,,M,Single-ply,Sri Lanka,Sub-Juniors,103.47,105,,,,,100,,,100,,,,,100,1,B
Nivendra Silva,,M,Single-ply,Sri Lanka,Sub-Juniors,125.48,120+,,,,,110,115,,115,,,,,115,1,B
Tom Hitchcock-Wyatt,,M,Raw,England,Juniors,58.52,59,,,,,60,70,80,80,,,,,80,1,B
Tanwar Adarsh,,M,Raw,India,Juniors,65.46,66,,,,,85,110,,110,,,,,110,1,B
Christopher Gallagher,,M,Raw,England,Juniors,73.89,74,,,,,-150,150,-165,150,,,,,150,1,B
Joshua Steen,,M,Raw,England,Juniors,81.95,83,,,,,112.5,117.5,120,120,,,,,120,1,B
Erik Mata,,M,Raw,England,Juniors,92.73,93,,,,,145,147.5,175,175,,,,,175,1,B
Josh Pollard,,M,Raw,England,Juniors,102.39,105,,,,,150,165,175,175,,,,,175,1,B
Trevor Greenwood,,M,Raw,Canada,Juniors,137.96,120+,,,,,185,195,202.5,202.5,,,,,202.5,1,B
Shiek Ali,,M,Raw,Canada,Masters 1,73.57,74,,,,,115,120,125,125,,,,,125,1,B
Rob Dyke,,M,Raw,Canada,Masters 1,81.03,83,,,,,145,155,-160,155,,,,,155,1,B
Malcolm Long,,M,Raw,England,Masters 1,81.23,83,,,,,130,140,145,145,,,,,145,2,B
Kevin Weiss,,M,Raw,Canada,Masters 1,86.18,93,,,,,147.5,155,-160,155,,,,,155,1,B
John Lefuel,,M,Raw,Canada,Masters 1,90.18,93,,,,,125,132.5,-137.5,132.5,,,,,132.5,2,B
RJ Forbes,,M,Raw,Canada,Masters 1,127.53,120+,,,,,165,175,-182.5,175,,,,,175,1,B
Gary Lacoursiere,,M,Raw,Canada,Masters 2,73.26,74,,,,,115,120,-132.5,120,,,,,120,1,B
Nigel Seymour,,M,Raw,England,Masters 2,81.47,83,,,,,105,110,-112.5,110,,,,,110,1,B
Prem Bajaj,,M,Raw,Australia,Masters 2,91.82,93,,,,,155,165,170,170,,,,,170,1,B
Rick Morse,,M,Raw,Australia,Masters 2,92.82,93,,,,,125,132.5,-140,132.5,,,,,132.5,2,B
Claude Dallaire,,M,Raw,Canada,Masters 2,92.58,93,,,,,120,122.5,-125,122.5,,,,,122.5,3,B
Robert Truchon,,M,Raw,Canada,Masters 2,89.8,93,,,,,105,112.5,-115,112.5,,,,,112.5,4,B
Bimal Indu Sharma,,M,Raw,India,Masters 2,94.42,105,,,,,120,130,-140,130,,,,,130,1,B
Inderjeet Singh,,M,Raw,India,Masters 3,82.38,83,,,,,110,117.5,-125,117.5,,,,,117.5,1,B
John MacQueen,,M,Raw,Canada,Masters 3,81.84,83,,,,,115,-120,-125,115,,,,,115,2,B
Anterpal Singh,,M,Raw,India,Masters 3,81.77,83,,,,,-70,-70,-70,,,,,,,DQ,B
John Fraser,,M,Raw,Canada,Masters 3,88.27,93,,,,,120,125,130,130,,,,,130,1,B
John O'Riordan,,M,Raw,England,Masters 3,87.92,93,,,,,115,122.5,127.5,127.5,,,,,127.5,2,B
John Noguera,,M,Raw,Canada,Masters 3,91.71,93,,,,,112.5,117.5,-122.5,117.5,,,,,117.5,3,B
Denis Cyr,,M,Raw,Canada,Masters 3,94.41,105,,,,,100,110,115,115,,,,,115,1,B
Daniel Royer,,M,Raw,Canada,Masters 3,103.95,105,,,,,-100,100,112.5,112.5,,,,,112.5,2,B
Brian Rock,,M,Raw,Canada,Masters 3,114.37,120,,,,,180,-187.5,-187.5,180,,,,,180,1,B
Tilman Gallant,,M,Raw,Canada,Masters 4,82.2,83,,,,,125.5,-132,132,132,,,,,132,1,B
Loc Nguyen,,M,Raw,Canada,Open,72.14,74,,,,,-150,150,162.5,162.5,,,,,162.5,1,B
Dan Magee,,M,Raw,England,Open,81.39,83,,,,,147.5,155,162.5,162.5,,,,,162.5,1,B
Chris Fudge,,M,Raw,Canada,Open,81.87,83,,,,,100,,,100,,,,,100,2,B
Paul Marsh #1,,M,Raw,England,Open,89.54,93,,,,,135,145,155,155,,,,,155,1,B
Nathan Oxford,,M,Raw,England,Open,102.53,105,,,,,155,162.5,170,170,,,,,170,1,B
Sumeet Sharma,,M,Raw,Canada,Open,94.56,105,,,,,145,155,167.5,167.5,,,,,167.5,2,B
Robert Perry,,M,Raw,Canada,Open,94.14,105,,,,,152.5,160,-167.5,160,,,,,160,3,B
Joey Watson,,M,Raw,England,Open,112.15,120,,,,,180,187.5,192.5,192.5,,,,,192.5,1,B
Chris Horton,,M,Raw,England,Open,110.51,120,,,,,170,177.5,-182.5,177.5,,,,,177.5,2,B
Gregory Young,,M,Raw,Canada,Open,157.96,120+,,,,,237.5,250,-262.5,250,,,,,250,1,B
Raymond Hickie,,M,Raw,Canada,Open,141.93,120+,,,,,192.5,202.5,-210,202.5,,,,,202.5,2,B
Toby Caswell,,M,Raw,England,Open,129.22,120+,,,,,165,175,180,180,,,,,180,3,B
Raphael Boutin,,M,Raw,Canada,Sub-Juniors,65.54,66,,,,,115,125.5,130.5,130.5,,,,,130.5,1,B
Luca Kawahara-Musiu,,M,Raw,England,Sub-Juniors,67.22,74,,,,,105,110,-112.5,110,,,,,110,1,B
K.v Rithvik,,M,Raw,India,Sub-Juniors,81.77,83,,,,,70,80,-85,80,,,,,80,1,B
Jamie Green #1,,M,Raw,England,Sub-Juniors,103.15,105,,,,,125,132.5,137.5,137.5,,,,,137.5,1,B
Kakolya Silva,,M,Raw,Sri Lanka,Sub-Juniors,103.29,105,,,,,105,112.5,115,115,,,,,115,2,B
Joel Cloutier,,M,Raw,Canada,Sub-Juniors,103.88,105,,,,,97.5,102.5,105,105,,,,,105,3,B
Nivendra Silva,,M,Raw,Sri Lanka,Sub-Juniors,125.51,120+,,,,,110,120,-125,120,,,,,120,1,B
Sarah Strickland,,F,Single-ply,Canada,Juniors,51.95,52,,,,,67.5,-70,70,70,,,,,70,1,B
Danielle Hussey,,F,Single-ply,Canada,Masters 1,56.23,57,,,,,75,80,82.5,82.5,,,,,82.5,1,B
Joanne Rose,,F,Single-ply,Canada,Masters 1,57.9,63,,,,,65,70,,70,,,,,70,1,B
Arun Arathi,,F,Single-ply,India,Masters 1,70.51,72,,,,,60,67.5,70,70,,,,,70,1,B
Heather Unsworth,,F,Single-ply,Canada,Masters 1,82.77,84,,,,,90,95,100,100,,,,,100,1,B
Olga Sullivan,,F,Single-ply,Canada,Masters 1,80.23,84,,,,,87.5,92.5,-97.5,92.5,,,,,92.5,2,B
Kelly Farrer,,F,Single-ply,England,Masters 1,116.2,84+,,,,,100,112.5,125,125,,,,,125,1,B
Duneja Poonam,,F,Single-ply,India,Masters 1,86.5,84+,,,,,40,45,50,50,,,,,50,2,B
Karen Hann,,F,Single-ply,Canada,Masters 2,56.43,57,,,,,60,65,70,70,,,,,70,1,B
Beverly Sharpe,,F,Single-ply,Canada,Masters 2,71.71,72,,,,,,52.5,57.5,57.5,,,,,57.5,1,B
Sharon McCarthy,,F,Single-ply,Canada,Masters 2,83.81,84,,,,,65,-67.5,-67.5,65,,,,,65,1,B
Linda Rousseau,,F,Single-ply,Canada,Masters 3,82.83,84,,,,,77.5,-85,85,85,,,,,85,1,B
Susan Haywood,,F,Single-ply,Canada,Masters 4,81.65,84,,,,,45,65,73,73,,,,,73,1,B
Romina Basting,,F,Single-ply,England,Open,51.84,52,,,,,67.5,70,72.5,72.5,,,,,72.5,1,B
Stef Kean,,F,Single-ply,Canada,Open,52.53,57,,,,,85,87.5,92.5,92.5,,,,,92.5,1,B
Patel Singh Nidhi,,F,Single-ply,India,Open,55.63,57,,,,,-80,80,90,90,,,,,90,2,B
Annika Thiel,,F,Single-ply,Canada,Open,70.64,72,,,,,75,80,-90,80,,,,,80,1,B
Marian De Zoysa,,F,Single-ply,Sri Lanka,Open,71.37,72,,,,,50,60,67.5,67.5,,,,,67.5,2,B
Rhaea Stinn,,F,Single-ply,Canada,Open,78.04,84,,,,,197.5,202.5,210,210,,,,,210,1,B
Julia Young,,F,Single-ply,Canada,Open,81.81,84,,,,,95,100,107.5,107.5,,,,,107.5,2,B
Rebecca Adams,,F,Single-ply,Canada,Open,84.68,84+,,,,,92.5,97.5,-102.5,97.5,,,,,97.5,1,B
Jangir Hemlata,,F,Single-ply,India,Open,84.66,84+,,,,,50,55,-57.5,55,,,,,55,2,B
Rishitaa Jain,,F,Single-ply,India,Sub-Juniors,51.6,52,,,,,-25,40,-42.5,40,,,,,40,1,B
Sarah Strickland,,F,Raw,Canada,Juniors,51.91,52,,,,,47.5,50,-52.5,50,,,,,50,1,B
Marie-Li Dion,,F,Raw,Canada,Juniors,56.3,57,,,,,70,75,80,80,,,,,80,1,B
Lydia Forrest,,F,Raw,England,Juniors,54.12,57,,,,,60,65,67.5,67.5,,,,,67.5,2,B
Joely Hawke,,F,Raw,England,Juniors,55.61,57,,,,,67.5,-70,-70,67.5,,,,,67.5,3,B
Orocy Jo,,F,Raw,New Zealand,Juniors,57.82,63,,,,,77.5,82.5,85,85,,,,,85,1,B
Karenjeet Bains,,F,Raw,England,Juniors,62.38,63,,,,,77.5,-82.5,-85,77.5,,,,,77.5,2,B
Sophia Ellis,,F,Raw,England,Juniors,71.58,72,,,,,95,97.5,100,100,,,,,100,1,B
Amanda Wall,,F,Raw,Canada,Juniors,70.35,72,,,,,82.5,87.5,90,90,,,,,90,2,B
Holly O'Shea,,F,Raw,England,Juniors,70.32,72,,,,,-90,-90,-90,,,,,,,DQ,B
Danielle Hussey,,F,Raw,Canada,Masters 1,56.5,57,,,,,45,50,,50,,,,,50,1,B
Magdalena Kijak,,F,Raw,Canada,Masters 1,57.5,63,,,,,85,87.5,-90,87.5,,,,,87.5,1,B
Kerys Knight,,F,Raw,England,Masters 1,60.91,63,,,,,65,67.5,70,70,,,,,70,2,B
Lincoln Rose,1970-12-17,F,Raw,England,Masters 1,69.04,72,,,,,75,77.5,80,80,,,,,80,1,B
Tracy Wise,,F,Raw,Canada,Masters 1,69.33,72,,,,,75,80,-82.5,80,,,,,80,2,B
Tammie-Lee Ballinger,,F,Raw,Canada,Masters 1,115.12,84+,,,,,95,102.5,107.5,107.5,,,,,107.5,1,B
Lisa Pilkington,,F,Raw,England,Masters 1,114.25,84+,,,,,85,90,95,95,,,,,95,2,B
Duneja Poonam,,F,Raw,India,Masters 1,86.89,84+,,,,,40,50,,50,,,,,50,3,B
Karen Hann,,F,Raw,Canada,Masters 2,56.36,57,,,,,42.5,45,47.5,47.5,,,,,47.5,1,B
Debbie Peever,,F,Raw,Canada,Masters 2,60.85,63,,,,,52.5,60,62.5,62.5,,,,,62.5,1,B
Rita Shergold,,F,Raw,England,Masters 2,67.78,72,,,,,67.5,70,72.5,72.5,,,,,72.5,1,B
Delwyn Evans,,F,Raw,New Zealand,Masters 2,70.06,72,,,,,72.5,-75,-75,72.5,,,,,72.5,2,B
Gayle Johnson,,F,Raw,Canada,Masters 2,70.87,72,,,,,70,72.5,-75,72.5,,,,,72.5,3,B
Melanie Kaye,,F,Raw,England,Masters 2,66.2,72,,,,,60,-62.5,-62.5,60,,,,,60,4,B
Jill Bowers,,F,Raw,England,Masters 2,89.77,84+,,,,,55,60,-65,60,,,,,60,1,B
Deb Ellard,,F,Raw,Canada,Masters 3,65.69,72,,,,,60,65,-67.5,65,,,,,65,1,B
Linda Rousseau,,F,Raw,Canada,Masters 3,82.72,84,,,,,55,57.5,60,60,,,,,60,1,B
Ellynne Dickson,,F,Raw,Canada,Masters 3,115.11,84+,,,,,57.5,60,-62.5,60,,,,,60,1,B
Judith McGauley,1948-01-09,F,Raw,England,Masters 4,58.09,63,,,,,30,32.5,35,35,,,,,35,1,B
Ruby Koritarov,,F,Raw,Canada,Masters 4,102.72,84+,,,,,40,40.5,43,43,,,,,43,1,B
Stephanie Ensol,,F,Raw,Malaysia,Open,47.72,52,,,,,-70,70,-75,70,,,,,70,1,B
Vicky Mirceta,,F,Raw,England,Open,49.42,52,,,,,65,67.5,70,70,,,,,70,2,B
Krishnaa Mahbubani,,F,Raw,England,Open,51.21,52,,,,,47.5,52.5,-55,52.5,,,,,52.5,3,B
Stef Kean,,F,Raw,Canada,Open,52.13,57,,,,,70,72.5,75,75,,,,,75,1,B
Patel Singh Nidhi,,F,Raw,India,Open,55.63,57,,,,,62.5,70,75,75,,,,,75,2,B
Emma Ludlow,,F,Raw,England,Open,54.22,57,,,,,65,67.5,70,70,,,,,70,3,B
Anastasia Harmer,,F,Raw,England,Open,56.19,57,,,,,60,-65,-72.5,60,,,,,60,4,B
Sophie Hardy,,F,Raw,England,Open,59.56,63,,,,,72.5,75,-80,75,,,,,75,1,B
Rachel Bradish,,F,Raw,England,Open,70.98,72,,,,,85,90,-92.5,90,,,,,90,1,B
Bea Wright,,F,Raw,England,Open,70.19,72,,,,,75,80,-82.5,80,,,,,80,2,B
Claire Tocher,,F,Raw,Scotland,Open,82.27,84,,,,,97.5,-102.5,-102.5,97.5,,,,,97.5,1,B
Julia Young,,F,Raw,Canada,Open,82.93,84,,,,,82.5,85,-90,85,,,,,85,2,B
Rebecca Coggle,,F,Raw,England,Open,132.73,84+,,,,,95,102.5,107.5,107.5,,,,,107.5,1,B
Lexie Elias,,F,Raw,Canada,Open,142.77,84+,,,,,85,90,95,95,,,,,95,2,B
Rishitaa Jain,,F,Raw,India,Sub-Juniors,51.6,52,,,,,25,30,-35,30,,,,,30,1,B
Lily MacPherson,,F,Raw,Canada,Sub-Juniors,63.79,72,,,,,47.5,50,52.5,52.5,,,,,52.5,1,B
Tanwar Adarsh,,M,Single-ply,India,Juniors,64.9,66,-180,180,190,190,120,130,-140,130,190,210,225,225,545,1,SBD
Thomas Morgan #1,,M,Single-ply,Wales,Juniors,82.22,83,240,250,257.5,257.5,180,187.5,192.5,192.5,212.5,227.5,237.5,237.5,687.5,1,SBD
Kumar Mohan,,M,Single-ply,India,Juniors,83.01,93,180,230,250,250,110,140,145,145,200,230,260,260,655,1,SBD
Tom Kean,,M,Single-ply,Canada,Masters 1,82.32,83,245,257.5,272.5,272.5,175,190,200,200,250,-262.5,275,275,747.5,1,SBD
Kumar Ashwani,,M,Single-ply,India,Masters 1,78.33,83,260,-270,-270,260,120,135,142.5,142.5,220,240,-250,240,642.5,2,SBD
Robert King,,M,Single-ply,Canada,Masters 1,84.55,93,185,205,215,215,75,140,150,150,215,237.5,250,250,615,1,SBD
Singh Arunjit,,M,Single-ply,India,Masters 1,96.49,105,200,220,230,230,135,142.5,,142.5,230,250,,250,622.5,1,SBD
Kumar Sarath,,M,Single-ply,India,Masters 1,119.15,120,240,-260,270,270,170,182.5,-185,182.5,240,265,-275,265,717.5,1,SBD
Dylan Davies,,M,Single-ply,Wales,Masters 1,140.28,120+,200,230,,230,120,140,-160,140,200,230,260,260,630,1,SBD
Girijesh Kumar,,M,Single-ply,India,Masters 2,57.4,59,-60,60,70,70,60,65,70,70,100,120,130,130,270,1,SBD
Jay McGrath,,M,Single-ply,Canada,Masters 2,64.41,66,175,185,192.5,192.5,107.5,112.5,115,115,195,200,207.5,207.5,515,1,SBD
François Cazes,,M,Single-ply,Canada,Masters 2,73.29,74,165,172.5,180,180,100,105,107.5,107.5,190,202.5,210,210,497.5,1,SBD
George Millar,,M,Single-ply,N.Ireland,Masters 2,81.43,83,200,-210,210,210,140,145,-150,145,210,230,-235,230,585,1,SBD
Larry Walsh,,M,Single-ply,Canada,Masters 2,92.42,93,215,227.5,235,235,130,135,142.5,142.5,222.5,235,-242.5,235,612.5,1,SBD
Paul Gidney,,M,Single-ply,Canada,Masters 2,101.87,105,235,252.5,-262.5,252.5,165,175,182.5,182.5,270,285,296,296,731,1,SBD
Réjean Talon,,M,Single-ply,Canada,Masters 3,65.65,66,185,-202.5,-202.5,185,125,130,132.5,132.5,180,190,195,195,512.5,1,SBD
Don Lovell,,M,Single-ply,Canada,Masters 3,64.19,66,125,135,142.5,142.5,50,-67.5,70,70,175,180,-190,180,392.5,2,SBD
Kevin Jane,,M,Single-ply,England,Masters 3,92.29,93,225,250,262.5,262.5,150,157.5,-160,157.5,230,255,-260,255,675,1,SBD
Kakolya Silva,,M,Single-ply,Sri Lanka,Sub-Juniors,103.55,105,145,160,,160,100,110,,110,200,215,,215,485,1,SBD
Nivendra Silva,,M,Single-ply,Sri Lanka,Sub-Juniors,126.1,120+,180,190,,190,120,,,120,180,200,,200,510,1,SBD
Emily Pitt,,F,Raw,Canada,Special Olympics,96.95,84+,,,,,30,-35,-37.5,30,-65,65,70,70,100,1,BD
Daniel McGauley,,M,Raw,England,Special Olympics,56.31,59,100,110,117.5,117.5,80,85,87.5,87.5,90,100,110,110,315,1,SBD
Nathan Eddison,,M,Raw,Canada,Special Olympics,59,59,,,,,-40,-40,40,40,90,97.5,105,105,145,1,BD
Jonathan Roache,,M,Raw,Canada,Special Olympics,61.29,66,,,,,-30,32.5,37.5,37.5,85,90,97.5,97.5,135,1,BD
Charles-Lee Fourie,,M,Raw,South Africa,Special Olympics,72.93,74,-127.5,130,-137.5,130,77.5,-82.5,-82.5,77.5,180,190,-200,190,397.5,1,SBD
Matthew Wakeham,,M,Raw,Canada,Special Olympics,85.19,93,,,,,40,45,50,50,110,115,125,125,175,3,BD
Ryan Drover,,M,Raw,Canada,Special Olympics,85.22,93,,,,,45,52.5,60,60,105,115,122.5,122.5,182.5,1,BD
Daniel Horne,,M,Raw,Canada,Special Olympics,85.49,93,,,,,55,62.5,70,70,100,110,-117.5,110,180,2,BD
Luke Kennedy,,M,Raw,Canada,Special Olympics,85.87,93,,,,,45,52.5,57.5,57.5,95,102.5,107.5,107.5,165,4,BD
Shaughn Conners,,M,Raw,Canada,Special Olympics,104.62,105,,,,,35,40,45,45,90,102.5,112.5,112.5,157.5,1,BD
Mark Collins #3,,M,Raw,Canada,Special Olympics,109.6,120,,,,,47.5,52.5,57.5,57.5,,,,,57.5,1,B
Shane Mahon,,M,Raw,Canada,Special Olympics,110.85,120,,,,,75,82.5,85,85,167.5,180,192.5,192.5,277.5,1,BD
