Place,Name,Sex,Event,Division,WeightClassKg,Equipment,BirthYear,State,BodyweightKg,Best3SquatKg,Best3BenchKg,Best3DeadliftKg,TotalKg,Age,BirthDate
1,Troy Casa,M,B,MR-M2,93,Raw,1966,NV,91.7,,25,,25,,
1,Deuce Gruden,M,SBD,MR-O,83,Raw,1994,NV,82.5,25,25,25,75,,
